{
  "project_info": {
    "project_number": "295113322175",
    "firebase_url": "https://checkers36342.firebaseio.com",
    "project_id": "checkers36342",
    "storage_bucket": "checkers36342.appspot.com"
  },
  "client": [
    {
      "client_info": {
        "mobilesdk_app_id": "1:295113322175:android:1403a42cb8371ce1",
        "android_client_info": {
          "package_name": "com.example.android.checkers3634"
        }
      },
      "oauth_client": [
        {
          "client_id": "295113322175-pt05j32fsstfg2l46oir12b3tbf7vd3r.apps.googleusercontent.com",
          "client_type": 3
        }
      ],
      "api_key": [
        {
          "current_key": "AIzaSyCac1jUsubYzDxTFznBmy-yNHJwUMHClOI"
        }
      ],
      "services": {
        "analytics_service": {
          "status": 1
        },
        "appinvite_service": {
          "status": 1,
          "other_platform_oauth_client": []
        },
        "ads_service": {
          "status": 2
        }
      }
    }
  ],
  "configuration_version": "1"
}